[gd_scene load_steps=10 format=2]

[ext_resource path="res://Assets/tilemaps/dungeon_walls.tres" type="TileSet" id=1]
[ext_resource path="res://Scenes/Player.tscn" type="PackedScene" id=2]
[ext_resource path="res://Scenes/Goblin.tscn" type="PackedScene" id=3]
[ext_resource path="res://Scenes/Potion.tscn" type="PackedScene" id=4]
[ext_resource path="res://Scenes/spikes.tscn" type="PackedScene" id=5]
[ext_resource path="res://Scenes/Zombie.tscn" type="PackedScene" id=6]
[ext_resource path="res://Scenes/ChangeScene.tscn" type="PackedScene" id=7]
[ext_resource path="res://Assets/audio/graveyard_loop.ogg" type="AudioStream" id=8]

[sub_resource type="OccluderPolygon2D" id=1]
closed = false
polygon = PoolVector2Array( 171.346, 156.371, 171.203, 304.233, 228.582, 304.085, 228.73, 256.665, 267.231, 256.368, 267.528, 320.734, 330.856, 320.812, 330.856, 348.845, 299.201, 348.53, 298.797, 512.866, 404.339, 513.461, 404.441, 347.827, 372.922, 348.091, 372.922, 320.148, 436.49, 320.413, 436.887, 256.58, 474.498, 256.713, 475.16, 305.051, 532.503, 304.918, 532.503, 156.329, 474.762, 155.799, 474.762, 204.799, 436.887, 204.402, 436.489, 139.907, 373.054, 140.304, 373.054, 112.626, 388.284, 112.493, 388.284, 12.2417, 315.578, 12.2417, 315.313, 112.228, 331.073, 112.096, 331.47, 140.569, 266.975, 140.569, 266.975, 204.534, 228.437, 204.667, 228.305, 156.064 )

[node name="Level 2" type="Node2D"]

[node name="Floor" type="TileMap" parent="."]
tile_set = ExtResource( 1 )
cell_size = Vector2( 16, 16 )
format = 1
tile_data = PoolIntArray( 131092, 1, 262145, 131093, 1, 262145, 131094, 1, 262145, 131095, 1, 262145, 196628, 1, 262145, 196629, 1, 262145, 196630, 1, 262145, 196631, 1, 262145, 262164, 1, 262145, 262165, 1, 262145, 262166, 1, 262145, 262167, 1, 262145, 327700, 1, 262145, 327701, 1, 262145, 327702, 1, 262145, 327703, 1, 262145, 393236, 1, 262145, 393237, 1, 262145, 393238, 1, 262145, 393239, 1, 262145, 458773, 1, 262145, 458774, 1, 262145, 524309, 1, 262145, 524310, 1, 262145, 589845, 1, 262145, 589846, 1, 262145, 655377, 1, 262145, 655378, 1, 262145, 655379, 1, 262145, 655380, 1, 262145, 655381, 1, 262145, 655382, 1, 262145, 655383, 1, 262145, 655384, 1, 262145, 655385, 1, 262145, 655386, 1, 262145, 720907, 1, 262145, 720908, 1, 262145, 720909, 1, 262145, 720913, 1, 262145, 720914, 1, 262145, 720915, 1, 262145, 720916, 1, 262145, 720917, 1, 262145, 720918, 1, 262145, 720919, 1, 262145, 720920, 1, 262145, 720921, 1, 262145, 720922, 1, 262145, 720926, 1, 262145, 720927, 1, 262145, 720928, 1, 262145, 786443, 1, 262145, 786444, 1, 262145, 786445, 1, 262145, 786449, 1, 262145, 786450, 1, 262145, 786451, 1, 262145, 786452, 1, 262145, 786453, 1, 262145, 786454, 1, 262145, 786455, 1, 262145, 786456, 1, 262145, 786457, 1, 262145, 786458, 1, 262145, 786462, 1, 262145, 786463, 1, 262145, 786464, 1, 262145, 851979, 1, 262145, 851980, 1, 720900, 851981, 1, 262145, 851985, 1, 262145, 851986, 1, 262145, 851987, 1, 262145, 851988, 1, 262145, 851989, 1, 262145, 851990, 1, 262145, 851991, 1, 262145, 851992, 1, 262145, 851993, 1, 262145, 851994, 1, 262145, 851998, 1, 262145, 851999, 1, 720900, 852000, 1, 262145, 917515, 1, 262145, 917516, 1, 262145, 917517, 1, 262145, 917518, 1, 262145, 917519, 1, 262145, 917520, 1, 262145, 917521, 1, 262145, 917522, 1, 262145, 917523, 1, 262145, 917524, 1, 262145, 917525, 1, 720900, 917526, 1, 720900, 917527, 1, 262145, 917528, 1, 262145, 917529, 1, 262145, 917530, 1, 262145, 917531, 1, 262145, 917532, 1, 262145, 917533, 1, 262145, 917534, 1, 262145, 917535, 1, 262145, 917536, 1, 262145, 983051, 1, 262145, 983052, 1, 262145, 983053, 1, 262145, 983054, 1, 262145, 983055, 1, 262145, 983056, 1, 262145, 983057, 1, 262145, 983058, 1, 262145, 983059, 1, 262145, 983060, 1, 262145, 983061, 1, 720900, 983062, 1, 720900, 983063, 1, 262145, 983064, 1, 262145, 983065, 1, 262145, 983066, 1, 262145, 983067, 1, 262145, 983068, 1, 262145, 983069, 1, 262145, 983070, 1, 262145, 983071, 1, 262145, 983072, 1, 262145, 1048587, 1, 262145, 1048588, 1, 720900, 1048589, 1, 262145, 1048593, 1, 262145, 1048594, 1, 262145, 1048595, 1, 262145, 1048596, 1, 262145, 1048597, 1, 262145, 1048598, 1, 262145, 1048599, 1, 262145, 1048600, 1, 262145, 1048601, 1, 262145, 1048602, 1, 262145, 1048606, 1, 262145, 1048607, 1, 720900, 1048608, 1, 262145, 1114123, 1, 262145, 1114124, 1, 262145, 1114125, 1, 262145, 1114129, 1, 262145, 1114130, 1, 262145, 1114131, 1, 262145, 1114132, 1, 262145, 1114133, 1, 262145, 1114134, 1, 262145, 1114135, 1, 262145, 1114136, 1, 262145, 1114137, 1, 262145, 1114138, 1, 262145, 1114142, 1, 262145, 1114143, 1, 262145, 1114144, 1, 262145, 1179659, 1, 262145, 1179660, 1, 262145, 1179661, 1, 262145, 1179665, 1, 262145, 1179666, 1, 262145, 1179667, 1, 262145, 1179668, 1, 262145, 1179669, 1, 262145, 1179670, 1, 262145, 1179671, 1, 262145, 1179672, 1, 262145, 1179673, 1, 262145, 1179674, 1, 262145, 1179678, 1, 262145, 1179679, 1, 262145, 1179680, 1, 262145, 1245201, 1, 262145, 1245202, 1, 262145, 1245203, 1, 262145, 1245204, 1, 262145, 1245205, 1, 262145, 1245206, 1, 262145, 1245207, 1, 262145, 1245208, 1, 262145, 1245209, 1, 262145, 1245210, 1, 262145, 1310741, 1, 262145, 1310742, 1, 262145, 1376277, 1, 262145, 1376278, 1, 262145, 1441813, 1, 262145, 1441814, 1, 262145, 1507347, 1, 262145, 1507348, 1, 262145, 1507349, 1, 262145, 1507350, 1, 262145, 1507351, 1, 262145, 1507352, 1, 262145, 1572883, 1, 262145, 1572884, 1, 262145, 1572885, 1, 262145, 1572886, 1, 262145, 1572887, 1, 262145, 1572888, 1, 262145, 1638419, 1, 262145, 1638420, 1, 262145, 1638421, 1, 262145, 1638422, 1, 262145, 1638423, 1, 262145, 1638424, 1, 262145, 1703955, 1, 262145, 1703956, 1, 262145, 1703957, 1, 262145, 1703958, 1, 262145, 1703959, 1, 262145, 1703960, 1, 262145, 1769491, 1, 262145, 1769492, 1, 720900, 1769493, 1, 262145, 1769494, 1, 262145, 1769495, 1, 720900, 1769496, 1, 262145, 1835027, 1, 262145, 1835028, 1, 262145, 1835029, 1, 262145, 1835030, 1, 262145, 1835031, 1, 262145, 1835032, 1, 262145, 1900563, 1, 262145, 1900564, 1, 262145, 1900565, 1, 262145, 1900566, 1, 262145, 1900567, 1, 262145, 1900568, 1, 262145, 1966099, 1, 262145, 1966100, 1, 262145, 1966101, 1, 262145, 1966102, 1, 262145, 1966103, 1, 262145, 1966104, 1, 262145, 2031635, 1, 262145, 2031636, 1, 262145, 2031637, 1, 393219, 2031638, 1, 393219, 2031639, 1, 262145, 2031640, 1, 262145 )

[node name="Walls" type="TileMap" parent="."]
tile_set = ExtResource( 1 )
cell_size = Vector2( 16, 16 )
format = 1
tile_data = PoolIntArray( 19, 1, 458752, 20, 0, 2, 21, 0, 2, 22, 0, 2, 23, 0, 2, 24, 1, 458753, 65555, 1, 524288, 65556, 0, 65538, 65557, 0, 65538, 65558, 0, 65538, 65559, 0, 65538, 65560, 1, 524289, 131091, 1, 524288, 131096, 1, 524289, 196627, 1, 524288, 196632, 1, 524289, 262163, 1, 524288, 262168, 1, 524289, 327699, 1, 524288, 327704, 1, 524289, 393235, 1, 524288, 393236, 1, 458755, 393239, 1, 458754, 393240, 1, 524289, 458771, 1, 589824, 458772, 1, 524291, 458775, 1, 524290, 458776, 1, 589825, 524304, 1, 458752, 524305, 0, 2, 524306, 0, 2, 524307, 0, 2, 524308, 0, 589827, 524311, 0, 589826, 524312, 0, 2, 524313, 0, 2, 524314, 0, 2, 524315, 1, 458753, 589834, 1, 458752, 589835, 0, 2, 589836, 0, 2, 589837, 0, 2, 589838, 1, 458753, 589840, 1, 524288, 589841, 0, 65538, 589842, 0, 65538, 589843, 0, 65538, 589844, 0, 655363, 589847, 0, 655362, 589848, 0, 65538, 589849, 0, 65538, 589850, 0, 65538, 589851, 1, 524289, 589853, 1, 458752, 589854, 0, 2, 589855, 0, 2, 589856, 0, 2, 589857, 1, 458753, 655370, 1, 524288, 655371, 0, 65538, 655372, 0, 65538, 655373, 0, 65538, 655374, 1, 524289, 655376, 1, 524288, 655387, 1, 524289, 655389, 1, 524288, 655390, 0, 65538, 655391, 0, 65538, 655392, 0, 65538, 655393, 1, 524289, 720906, 1, 524288, 720910, 1, 524289, 720912, 1, 524288, 720923, 1, 524289, 720925, 1, 524288, 720929, 1, 524289, 786442, 1, 524288, 786446, 0, 589826, 786447, 0, 2, 786448, 0, 589827, 786459, 0, 589826, 786460, 0, 2, 786461, 0, 589827, 786465, 1, 524289, 851978, 1, 524288, 851982, 0, 655362, 851983, 0, 65538, 851984, 0, 655363, 851995, 0, 655362, 851996, 0, 65538, 851997, 0, 655363, 852001, 1, 524289, 917514, 1, 524288, 917537, 1, 524289, 983050, 1, 524288, 983054, 1, 458754, 983055, 1, 2, 983056, 1, 458755, 983067, 1, 458754, 983068, 1, 2, 983069, 1, 458755, 983073, 1, 524289, 1048586, 1, 524288, 1048590, 1, 524290, 1048591, 1, 65538, 1048592, 1, 524291, 1048603, 1, 524290, 1048604, 1, 65538, 1048605, 1, 524291, 1048609, 1, 524289, 1114122, 1, 524288, 1114126, 1, 524289, 1114128, 1, 524288, 1114139, 1, 524289, 1114141, 1, 524288, 1114145, 1, 524289, 1179658, 1, 524288, 1179659, 1, 2, 1179660, 1, 2, 1179661, 1, 2, 1179662, 1, 524289, 1179664, 1, 524288, 1179675, 1, 524289, 1179677, 1, 524288, 1179678, 1, 2, 1179679, 1, 2, 1179680, 1, 2, 1179681, 1, 524289, 1245194, 1, 589824, 1245195, 1, 65538, 1245196, 1, 65538, 1245197, 1, 65538, 1245198, 1, 589825, 1245200, 1, 524288, 1245201, 1, 2, 1245202, 1, 2, 1245203, 1, 2, 1245204, 1, 458755, 1245207, 1, 458754, 1245208, 1, 2, 1245209, 1, 2, 1245210, 1, 2, 1245211, 1, 524289, 1245213, 1, 589824, 1245214, 1, 65538, 1245215, 1, 65538, 1245216, 1, 65538, 1245217, 1, 589825, 1310736, 1, 589824, 1310737, 1, 65538, 1310738, 1, 65538, 1310739, 1, 65538, 1310740, 1, 524291, 1310743, 1, 524290, 1310744, 1, 65538, 1310745, 1, 65538, 1310746, 1, 65538, 1310747, 1, 589825, 1376274, 1, 458752, 1376275, 0, 2, 1376276, 0, 589827, 1376279, 0, 589826, 1376280, 0, 2, 1376281, 1, 458753, 1441810, 1, 524288, 1441811, 0, 65538, 1441812, 0, 655363, 1441815, 0, 655362, 1441816, 0, 655362, 1441817, 1, 524289, 1507346, 1, 524288, 1507353, 1, 524289, 1572882, 1, 524288, 1572889, 1, 524289, 1638418, 1, 524288, 1638425, 1, 524289, 1703954, 1, 524288, 1703961, 1, 524289, 1769490, 1, 524288, 1769497, 1, 524289, 1835026, 1, 524288, 1835033, 1, 524289, 1900562, 1, 524288, 1900569, 1, 524289, 1966098, 1, 524288, 1966105, 1, 524289, 2031634, 1, 524288, 2031635, 1, 2, 2031636, 1, 2, 2031637, 1, 2, 2031638, 1, 2, 2031639, 1, 2, 2031640, 1, 2, 2031641, 1, 524289, 2097170, 1, 589824, 2097171, 1, 65538, 2097172, 1, 65538, 2097173, 1, 65538, 2097174, 1, 65538, 2097175, 1, 65538, 2097176, 1, 65538, 2097177, 1, 589825 )

[node name="Player" parent="." instance=ExtResource( 2 )]
position = Vector2( 351.231, 43.8212 )

[node name="Goblin" parent="." instance=ExtResource( 3 )]
position = Vector2( 304.077, 169.794 )

[node name="Goblin2" parent="." instance=ExtResource( 3 )]
position = Vector2( 401.813, 170.854 )

[node name="Zombie" parent="." instance=ExtResource( 6 )]
position = Vector2( 305.217, 282.698 )

[node name="Zombie3" parent="." instance=ExtResource( 6 )]
position = Vector2( 322.035, 470.218 )

[node name="Zombie4" parent="." instance=ExtResource( 6 )]
position = Vector2( 381.739, 470.218 )

[node name="Zombie2" parent="." instance=ExtResource( 6 )]
position = Vector2( 391.549, 284.092 )

[node name="Goblin3" parent="." instance=ExtResource( 3 )]
position = Vector2( 505.853, 191.15 )

[node name="Goblin4" parent="." instance=ExtResource( 3 )]
position = Vector2( 505.853, 218.374 )

[node name="Goblin5" parent="." instance=ExtResource( 3 )]
position = Vector2( 505.499, 248.426 )

[node name="Goblin6" parent="." instance=ExtResource( 3 )]
position = Vector2( 507.974, 283.428 )

[node name="Goblin7" parent="." instance=ExtResource( 3 )]
position = Vector2( 201.443, 193.979 )

[node name="Goblin8" parent="." instance=ExtResource( 3 )]
position = Vector2( 200.736, 218.727 )

[node name="Goblin9" parent="." instance=ExtResource( 3 )]
position = Vector2( 200.383, 248.072 )

[node name="Goblin10" parent="." instance=ExtResource( 3 )]
position = Vector2( 199.547, 273.834 )

[node name="Goblin11" parent="." instance=ExtResource( 3 )]
position = Vector2( 321.898, 399.548 )

[node name="Goblin12" parent="." instance=ExtResource( 3 )]
position = Vector2( 385.385, 398.707 )

[node name="Potion6" parent="." instance=ExtResource( 4 )]
position = Vector2( 189.028, 283.109 )

[node name="Potion" parent="." instance=ExtResource( 4 )]
position = Vector2( 187.36, 233.053 )

[node name="Potion2" parent="." instance=ExtResource( 4 )]
position = Vector2( 188.027, 187.335 )

[node name="Potion3" parent="." instance=ExtResource( 4 )]
position = Vector2( 514.987, 187.78 )

[node name="Potion4" parent="." instance=ExtResource( 4 )]
position = Vector2( 517.214, 240.789 )

[node name="Potion5" parent="." instance=ExtResource( 4 )]
position = Vector2( 518.551, 287.561 )

[node name="Goblin13" parent="." instance=ExtResource( 3 )]
position = Vector2( 385.385, 398.707 )

[node name="TileMap" type="TileMap" parent="."]
tile_set = ExtResource( 1 )
cell_size = Vector2( 16, 16 )
format = 1
tile_data = PoolIntArray( 393236, 1, 458755, 393239, 1, 458754, 983054, 1, 458754, 983055, 1, 2, 983056, 1, 458755, 983067, 1, 458754, 983068, 1, 2, 983069, 1, 458755, 1179659, 1, 2, 1179660, 1, 2, 1179661, 1, 2, 1179678, 1, 2, 1179679, 1, 2, 1179680, 1, 2, 1245201, 1, 2, 1245202, 1, 2, 1245203, 1, 2, 1245204, 1, 458755, 1245207, 1, 458754, 1245208, 1, 2, 1245209, 1, 2, 1245210, 1, 2, 2031635, 1, 2, 2031636, 1, 2, 2031637, 1, 2, 2031638, 1, 2, 2031639, 1, 2, 2031640, 1, 2 )

[node name="Spikes" parent="." instance=ExtResource( 5 )]
position = Vector2( 328.486, 438.85 )

[node name="Spikes6" parent="." instance=ExtResource( 5 )]
position = Vector2( 199.871, 216.134 )

[node name="Spikes7" parent="." instance=ExtResource( 5 )]
position = Vector2( 200.048, 263.775 )

[node name="Spikes2" parent="." instance=ExtResource( 5 )]
position = Vector2( 375.915, 439.322 )

[node name="Spikes3" parent="." instance=ExtResource( 5 )]
position = Vector2( 503.646, 263.645 )

[node name="Spikes4" parent="." instance=ExtResource( 5 )]
position = Vector2( 504.44, 215.626 )

[node name="Spikes5" parent="." instance=ExtResource( 5 )]
position = Vector2( 351.851, 240.231 )
scale = Vector2( 1.994, 1.994 )

[node name="ChangeScene" parent="." instance=ExtResource( 7 )]
position = Vector2( 351.581, 502.983 )
scale = Vector2( 0.78, 0.245 )
scene_name = "MainMenu"

[node name="LightOccluder2D" type="LightOccluder2D" parent="."]
occluder = SubResource( 1 )

[node name="CanvasModulate" type="CanvasModulate" parent="."]
color = Color( 0, 0, 0, 1 )

[node name="AudioStreamPlayer" type="AudioStreamPlayer" parent="."]
stream = ExtResource( 8 )
volume_db = -27.733
autoplay = true
