[gd_scene load_steps=7 format=2]

[ext_resource path="res://Assets/0x72_DungeonTilesetII_v1.4.png" type="Texture" id=1]
[ext_resource path="res://Scripts/Weapon.gd" type="Script" id=2]
[ext_resource path="res://Assets/audio/knifeSlice.ogg" type="AudioStream" id=3]

[sub_resource type="AtlasTexture" id=1]
flags = 4
atlas = ExtResource( 1 )
region = Rect2( 288, 16, 16, 16 )

[sub_resource type="RectangleShape2D" id=2]
extents = Vector2( 6.12494, 2.93753 )

[sub_resource type="RectangleShape2D" id=3]
extents = Vector2( 6.55245, 3.33376 )

[node name="Weapon" type="KinematicBody2D"]
collision_layer = 16
script = ExtResource( 2 )

[node name="Sprite" type="Sprite" parent="."]
rotation = 1.5708
texture = SubResource( 1 )
offset = Vector2( 0, -1.227 )

[node name="CollisionShape2D" type="CollisionShape2D" parent="."]
position = Vector2( 0.420448, 0.105112 )
shape = SubResource( 2 )

[node name="Area2D" type="Area2D" parent="."]
collision_layer = 16
collision_mask = 4

[node name="CollisionShape2D" type="CollisionShape2D" parent="Area2D"]
position = Vector2( 0.42045, 0.157668 )
shape = SubResource( 3 )

[node name="Lifetime" type="Timer" parent="."]
wait_time = 2.0

[node name="AudioStreamPlayer2D" type="AudioStreamPlayer2D" parent="."]
stream = ExtResource( 3 )
volume_db = -24.116
autoplay = true

[connection signal="body_entered" from="Area2D" to="." method="_on_Area2D_body_entered"]
[connection signal="timeout" from="Lifetime" to="." method="_on_Lifetime_timeout"]
