[gd_resource type="DynamicFont" load_steps=2 format=2]

[ext_resource path="res://Assets/fonts/EdgeOfTheGalaxyRegular-OVEa6.otf" type="DynamicFontData" id=1]

[resource]
size = 43
font_data = ExtResource( 1 )
